Fase2/simulation/qsim/fase2.msim.vcd
$comment
	File created using the following command:
		vcd file fase2.msim.vcd -direction
$end
$date
	Sat Jun 01 15:16:28 2019
$end
$version
	ModelSim Version 10.5b
$end
$timescale
	1ps
$end

$scope module fsmcafec_vhd_vec_tst $end
$var wire 1 ! clk $end
$var wire 1 " en $end
$var wire 1 # led $end
$var wire 1 $ M5 $end
$var wire 1 % M10 $end
$var wire 1 & M20 $end
$var wire 1 ' M50 $end
$var wire 1 ( money [6] $end
$var wire 1 ) money [5] $end
$var wire 1 * money [4] $end
$var wire 1 + money [3] $end
$var wire 1 , money [2] $end
$var wire 1 - money [1] $end
$var wire 1 . money [0] $end

$scope module i1 $end
$var wire 1 / gnd $end
$var wire 1 0 vcc $end
$var wire 1 1 unknown $end
$var wire 1 2 devoe $end
$var wire 1 3 devclrn $end
$var wire 1 4 devpor $end
$var wire 1 5 ww_devoe $end
$var wire 1 6 ww_devclrn $end
$var wire 1 7 ww_devpor $end
$var wire 1 8 ww_clk $end
$var wire 1 9 ww_M5 $end
$var wire 1 : ww_M10 $end
$var wire 1 ; ww_M20 $end
$var wire 1 < ww_M50 $end
$var wire 1 = ww_en $end
$var wire 1 > ww_led $end
$var wire 1 ? ww_money [6] $end
$var wire 1 @ ww_money [5] $end
$var wire 1 A ww_money [4] $end
$var wire 1 B ww_money [3] $end
$var wire 1 C ww_money [2] $end
$var wire 1 D ww_money [1] $end
$var wire 1 E ww_money [0] $end
$var wire 1 F \led~output_o\ $end
$var wire 1 G \money[0]~output_o\ $end
$var wire 1 H \money[1]~output_o\ $end
$var wire 1 I \money[2]~output_o\ $end
$var wire 1 J \money[3]~output_o\ $end
$var wire 1 K \money[4]~output_o\ $end
$var wire 1 L \money[5]~output_o\ $end
$var wire 1 M \money[6]~output_o\ $end
$var wire 1 N \clk~input_o\ $end
$var wire 1 O \M50~input_o\ $end
$var wire 1 P \M20~input_o\ $end
$var wire 1 Q \M5~input_o\ $end
$var wire 1 R \M10~input_o\ $end
$var wire 1 S \NS~0_combout\ $end
$var wire 1 T \en~input_o\ $end
$var wire 1 U \PS~18_combout\ $end
$var wire 1 V \PS.E0~q\ $end
$var wire 1 W \Selector1~0_combout\ $end
$var wire 1 X \PS.E1~q\ $end
$var wire 1 Y \Selector2~0_combout\ $end
$var wire 1 Z \Selector2~1_combout\ $end
$var wire 1 [ \PS.E2~q\ $end
$var wire 1 \ \led~0_combout\ $end
$var wire 1 ] \Selector3~0_combout\ $end
$var wire 1 ^ \Selector3~1_combout\ $end
$var wire 1 _ \PS.E3~q\ $end
$var wire 1 ` \Selector4~0_combout\ $end
$var wire 1 a \Selector4~1_combout\ $end
$var wire 1 b \PS.E4~q\ $end
$var wire 1 c \Selector5~0_combout\ $end
$var wire 1 d \Selector5~1_combout\ $end
$var wire 1 e \Selector5~2_combout\ $end
$var wire 1 f \PS.E5~q\ $end
$var wire 1 g \led~1_combout\ $end
$var wire 1 h \Selector6~0_combout\ $end
$var wire 1 i \NS~1_combout\ $end
$var wire 1 j \Selector6~1_combout\ $end
$var wire 1 k \Selector6~2_combout\ $end
$var wire 1 l \PS.E6~q\ $end
$var wire 1 m \NS~2_combout\ $end
$var wire 1 n \PS~19_combout\ $end
$var wire 1 o \PS.E14~q\ $end
$var wire 1 p \PS~20_combout\ $end
$var wire 1 q \PS.E8~q\ $end
$var wire 1 r \WideOr5~0_combout\ $end
$var wire 1 s \PS~21_combout\ $end
$var wire 1 t \PS.E10~q\ $end
$var wire 1 u \PS~22_combout\ $end
$var wire 1 v \PS.E12~q\ $end
$var wire 1 w \WideOr1~0_combout\ $end
$var wire 1 x \WideOr5~combout\ $end
$var wire 1 y \PS~23_combout\ $end
$var wire 1 z \PS.E13~q\ $end
$var wire 1 { \WideOr4~0_combout\ $end
$var wire 1 | \PS~24_combout\ $end
$var wire 1 } \PS.E9~q\ $end
$var wire 1 ~ \WideOr4~combout\ $end
$var wire 1 !! \PS~25_combout\ $end
$var wire 1 "! \PS.E11~q\ $end
$var wire 1 #! \WideOr3~0_combout\ $end
$var wire 1 $! \WideOr3~combout\ $end
$var wire 1 %! \WideOr2~0_combout\ $end
$var wire 1 &! \Selector7~0_combout\ $end
$var wire 1 '! \Selector7~1_combout\ $end
$var wire 1 (! \PS.E7~q\ $end
$var wire 1 )! \WideOr2~combout\ $end
$var wire 1 *! \WideOr1~combout\ $end
$var wire 1 +! \PS~26_combout\ $end
$var wire 1 ,! \PS.E15~q\ $end
$var wire 1 -! \WideOr0~0_combout\ $end
$var wire 1 .! \ALT_INV_en~input_o\ $end
$var wire 1 /! \ALT_INV_WideOr2~combout\ $end
$var wire 1 0! \ALT_INV_WideOr3~combout\ $end
$var wire 1 1! \ALT_INV_WideOr5~combout\ $end
$upscope $end
$upscope $end
$enddefinitions $end
#0
$dumpvars
0!
1"
0#
0$
0%
0&
0'
0/
10
x1
12
13
14
15
16
17
08
09
0:
0;
0<
1=
0>
0F
0G
1H
1I
1J
1K
0L
0M
0N
0O
0P
0Q
0R
0S
1T
0U
0V
0W
0X
0Y
0Z
0[
0\
0]
0^
0_
0`
0a
0b
0c
0d
0e
0f
0g
0h
0i
0j
0k
0l
0m
0n
0o
0p
0q
0r
0s
0t
0u
0v
0w
1x
0y
0z
1{
0|
0}
1~
0!!
0"!
0#!
0$!
0%!
0&!
0'!
0(!
0)!
1*!
0+!
0,!
0-!
0.!
1/!
10!
01!
0?
0@
1A
1B
1C
1D
0E
0(
0)
1*
1+
1,
1-
0.
$end
#10000
1'
1<
1O
1S
1m
1s
1U
#25000
1!
18
1N
1V
1t
1%!
1\
0{
0~
1g
1)!
0/!
1F
0H
0J
1>
0D
0B
1#
0-
0+
#50000
0!
08
0N
#70000
0'
0<
0O
0S
0m
#75000
1!
18
1N
#100000
0!
08
0N
#125000
1!
18
1N
#150000
0!
08
0N
#160000
0"
0=
0T
1.!
0U
0\
0g
0F
0>
0#
#175000
1!
18
1N
0V
0t
0%!
0s
1{
1~
0)!
1/!
1H
1J
1D
1B
1-
1+
#200000
0!
08
0N
#225000
1!
18
1N
#250000
0!
08
0N
#275000
1!
18
1N
#300000
0!
08
0N
#325000
1!
18
1N
#350000
0!
08
0N
#375000
1!
18
1N
#400000
0!
08
0N
#425000
1!
18
1N
#450000
0!
08
0N
#475000
1!
18
1N
#500000
0!
08
0N
#525000
1!
18
1N
#550000
0!
08
0N
#575000
1!
18
1N
#600000
0!
08
0N
#625000
1!
18
1N
#650000
0!
08
0N
#675000
1!
18
1N
#700000
0!
08
0N
#725000
1!
18
1N
#750000
0!
08
0N
#775000
1!
18
1N
#800000
0!
08
0N
#825000
1!
18
1N
#850000
0!
08
0N
#875000
1!
18
1N
#900000
0!
08
0N
#925000
1!
18
1N
#950000
0!
08
0N
#975000
1!
18
1N
